…
# Oreotrochilus estella
# Schulenberg et al. 2007: 3400-4600, locally down to 3,000m
# MSB collection records go down to 3,400. But because Schulenberg uses 3,000, I'll bump down to that as low point.
full1[full1$species=="Oreotrochilus estella",][, "elev_min"] <- 3000 # Min elev


# Eyeball full1 species count to verify you inspected all 
sp.count.full1 <- full1 %>% group_by(species) %>% summarise(count = length(nk)); sp.count.full1
```

    # A tibble: 77 x 2
       species                    count
       <fct>                      <int>
     1 Adelomyia melanogenys         47
     2 Aglaeactis castelnaudii       16
     3 Aglaeactis cupripennis        17
     4 Aglaiocercus kingii           21
     5 Amazilia amazilia             65
     6 Amazilia chionogaster          9
     7 Amazilia franciae              1
     8 Amazilia lactea                3
     9 Amazilia viridicauda           8
    10 Anthracothorax nigricollis     2
    # … with 67 more rows
…
# We have too much missing data to be able to impute well. 
# It's clunkier, but probably more reliable to create subsets for each blood parameter model set, then remove NAs from those

# SECOND BUT: Chris suggested we can 'impute' mass values by substituting means across species and sex
# Start with a summary of species means for each sex 
library(dplyr)
species.mass.summary <- final %>% group_by(species, sex) %>%
                                  dplyr::summarize(mean_mass = mean(mass, na.rm = TRUE), 
                                  count =n())
species.mass.summary
```

    # A tibble: 143 x 4
    # Groups:   species [77]
       species                 sex     mean_mass count
       <fct>                   <fct>       <dbl> <int>
     1 Adelomyia melanogenys   female       3.48    21
     2 Adelomyia melanogenys   male         4.03    25
     3 Adelomyia melanogenys   unknown      4.01     1
     4 Aglaeactis castelnaudii female       6.57    13
     5 Aglaeactis castelnaudii male         6.19     3
     6 Aglaeactis cupripennis  female       6.91    12
     7 Aglaeactis cupripennis  male         7.17     5
     8 Aglaiocercus kingii     female       4.47    10
     9 Aglaiocercus kingii     male         4.98    11
    10 Amazilia amazilia       female       4.42    26
    # … with 133 more rows
…
